%YAML 1.1
%TAG !u! tag:unity3d.com,2011:
--- !u!1045 &1
EditorBuildSettings:
  m_ObjectHideFlags: 0
  serializedVersion: 2
  m_Scenes: []
  m_configObjects:
    Unity.XR.Oculus.Settings: {fileID: 11400000, guid: cf5067b91a39169408199cdbfa06a4e6,
      type: 2}
    com.unity.xr.management.loader_settings: {fileID: 11400000, guid: 85743f241acbf7047b86938b8362e42e,
      type: 2}
